{"count":1154,"next":"https://pokeapi.co/api/v2/pokemon?offset=6&limit=3","previous":"https://pokeapi.co/api/v2/pokemon?offset=0&limit=3","results":[{"name":"charmander","url":"https://pokeapi.co/api/v2/pokemon/4/"},{"name":"charmeleon","url":"https://pokeapi.co/api/v2/pokemon/5/"},{"name":"charizard","url":"https://pokeapi.co/api/v2/pokemon/6/"}]}