{"count":1154,"next":"https://pokeapi.co/api/v2/pokemon?offset=9&limit=3","previous":"https://pokeapi.co/api/v2/pokemon?offset=3&limit=3","results":[{"name":"squirtle","url":"https://pokeapi.co/api/v2/pokemon/7/"},{"name":"wartortle","url":"https://pokeapi.co/api/v2/pokemon/8/"},{"name":"blastoise","url":"https://pokeapi.co/api/v2/pokemon/9/"}]}